Flagging respondents
…
We can use these to filter respondents from the original
nep dataset. We can exclude the flagged respondent.

# Exclude the 33 flagged respondents with ARS > 0.8
nep[!flag_df$`ARS > 0.8`,] |> 
  na.omit() #exclude respondents with missing values
#> # A tibble: 904 × 15
#>    bczd005a bczd006a bczd007a bczd008a bczd009a bczd010a bczd011a bczd012a
#>       <dbl>    <dbl>    <dbl>    <dbl>    <dbl>    <dbl>    <dbl>    <dbl>
#>  1        4        4        5        2        4        4        5        2
#>  2        5        2        4        2        5        2        4        1
#>  3        4        2        2        2        4        2        4        2
#>  4        2        2        4        4        3        4        3        2
#>  5        2        2        5        5        4        4        5        4
#>  6        5        2        5        2        5        4        4        2
#>  7        5        2        5        3        4        4        5        1
#>  8        5        2        4        4        4        3        5        2
#>  9        1        3        5        5        4        5        5        1
#> 10        4        2        4        2        5        3        2        2
#> # ℹ 894 more rows
#> # ℹ 7 more variables: bczd013a <dbl>, bczd014a <dbl>, bczd015a <dbl>,
#> #   bczd016a <dbl>, bczd017a <dbl>, bczd018a <dbl>, bczd019a <dbl>

Alternatively we can filter out the flagged respondent.

# Extract only the 33 flagged respondents with ARS 0.8
nep[flag_df$`ARS > 0.8`,] |> 
  na.omit()
#> # A tibble: 33 × 15
#>    bczd005a bczd006a bczd007a bczd008a bczd009a bczd010a bczd011a bczd012a
#>       <dbl>    <dbl>    <dbl>    <dbl>    <dbl>    <dbl>    <dbl>    <dbl>
#>  1        4        3        4        4        4        4        4        4
#>  2        4        4        5        5        4        4        5        3
#>  3        3        4        4        4        4        4        4        4
#>  4        4        4        4        4        4        4        4        4
#>  5        4        4        4        5        4        4        5        4
#>  6        4        4        5        3        4        4        4        4
#>  7        4        4        5        4        5        4        5        4
#>  8        4        4        3        5        4        4        4        4
#>  9        4        2        5        4        5        4        5        4
#> 10        4        4        4        4        4        4        4        4
#> # ℹ 23 more rows
#> # ℹ 7 more variables: bczd013a <dbl>, bczd014a <dbl>, bczd015a <dbl>,
#> #   bczd016a <dbl>, bczd017a <dbl>, bczd018a <dbl>, bczd019a <dbl>
…
